RemoteRepoName,LocalRepoName,RemoteRepoURL,TargetDirectory
scripts,Scripts,https://git@bitbucket.org/davidhary/scripts.git,.\
vs.share,Share,https://git@bitbucket.org/davidhary/vs.share.git,Libraries\VS
